<svg xmlns="http://www.w3.org/2000/svg" xmlns:xlink="http://www.w3.org/1999/xlink" version="1.1" x="0px" y="0px" viewBox="0 0 64 64" style="enable-background:new 0 0 64 64;" xml:space="preserve" fill="#ffffff"><style type="text/css">
	.st10{fill:none;stroke:#ffffff;stroke-width:6;stroke-linecap:round;stroke-miterlimit:10;}
	.st11{fill:none;stroke:#ffffff;stroke-width:6;stroke-linecap:round;stroke-linejoin:round;stroke-miterlimit:10;}
</style><g><g><path class="st10" d="M16.6,7C8.7,12.3,3,21.9,3,32c0,16,13,29,29,29s29-13,29-29C61,16.3,48.6,3.6,33,3"/><polyline class="st11" points="16.6,18.6 16.6,7 5,7   "/></g><g><path d="M40.6,31.2l-11.9-9C28,21.8,27,22.1,27,22.7l0,18.5c0,0.7,1,1,1.7,0.5l11.9-9C41.1,32.4,41.1,31.6,40.6,31.2z"/></g></g></svg>